{
    "orders": [
        {
            "code": "00004772",
            "guid": "e157c8e2c42195d31eca2e5e11a10609e19ab62f",
            "placed": "2014-08-15T01:09:46-0400",
            "status": "APPROVED",
            "statusDisplay": "approved",
            "total": {
                "currencyIso": "USD",
                "formattedValue": "$48.99",
                "priceType": "BUY",
                "value": 48.99
            }
        },
        {
            "code": "00004767",
            "guid": "b17e9d5136ef18ff1b98cc911b91565aad1d7a3c",
            "placed": "2014-08-15T01:03:55-0400",
            "status": "ORDER_SPLIT",
            "statusDisplay": "processing",
            "total": {
                "currencyIso": "USD",
                "formattedValue": "$48.99",
                "priceType": "BUY",
                "value": 48.99
            }
        },
        {
            "code": "00004763",
            "guid": "a827bcf9a0d6c59a69923d53ed50a2e7db56b19b",
            "placed": "2014-08-15T01:03:10-0400",
            "status": "ORDER_SPLIT",
            "statusDisplay": "processing",
            "total": {
                "currencyIso": "USD",
                "formattedValue": "$48.99",
                "priceType": "BUY",
                "value": 48.99
            }
        },
        {
            "code": "00004755",
            "guid": "82f23a9ff6176fa0a65a4e2f2fa7c798cf6bdc54",
            "placed": "2014-08-15T00:56:20-0400",
            "status": "APPROVED",
            "statusDisplay": "approved",
            "total": {
                "currencyIso": "USD",
                "formattedValue": "$48.99",
                "priceType": "BUY",
                "value": 48.99
            }
        },
        {
            "code": "00004696",
            "guid": "eb72df1a4a8f184f0d26c7c8c6c17026e34469a2",
            "placed": "2014-08-14T16:33:49-0400",
            "status": "ORDER_SPLIT",
            "statusDisplay": "processing",
            "total": {
                "currencyIso": "USD",
                "formattedValue": "$48.99",
                "priceType": "BUY",
                "value": 48.99
            }
        },
        {
            "code": "00004691",
            "guid": "6bde4efb518d63b604ff43a9408bf9a99c5a3074",
            "placed": "2014-08-14T16:31:11-0400",
            "status": "ORDER_SPLIT",
            "statusDisplay": "processing",
            "total": {
                "currencyIso": "USD",
                "formattedValue": "$48.99",
                "priceType": "BUY",
                "value": 48.99
            }
        },
        {
            "code": "00004657",
            "guid": "e8a0a81aec29a648541905607c8a4f15892ee342",
            "placed": "2014-08-14T16:11:40-0400",
            "status": "APPROVED",
            "statusDisplay": "approved",
            "total": {
                "currencyIso": "USD",
                "formattedValue": "$48.99",
                "priceType": "BUY",
                "value": 48.99
            }
        },
        {
            "code": "00004653",
            "guid": "5cee619339b1916f75979aa1d0c0331911b8d816",
            "placed": "2014-08-14T16:11:01-0400",
            "status": "APPROVED",
            "statusDisplay": "approved",
            "total": {
                "currencyIso": "USD",
                "formattedValue": "$87.99",
                "priceType": "BUY",
                "value": 87.99
            }
        },
        {
            "code": "00004647",
            "guid": "1a67ce979edf969f92287ac8c25891eea803a11e",
            "placed": "2014-08-14T16:10:23-0400",
            "status": "ORDER_SPLIT",
            "statusDisplay": "processing",
            "total": {
                "currencyIso": "USD",
                "formattedValue": "$48.99",
                "priceType": "BUY",
                "value": 48.99
            }
        },
        {
            "code": "00004642",
            "guid": "4b1541c8f59510a0a2ca29366c503675533c6e23",
            "placed": "2014-08-14T16:05:24-0400",
            "status": "ORDER_SPLIT",
            "statusDisplay": "processing",
            "total": {
                "currencyIso": "USD",
                "formattedValue": "$48.99",
                "priceType": "BUY",
                "value": 48.99
            }
        },
        {
            "code": "00004631",
            "guid": "1019f48eb1ccc0b2b73aa86db4343cbc5257a498",
            "placed": "2014-08-14T16:03:01-0400",
            "status": "APPROVED",
            "statusDisplay": "approved",
            "total": {
                "currencyIso": "USD",
                "formattedValue": "$165.99",
                "priceType": "BUY",
                "value": 165.99
            }
        },
        {
            "code": "00004551",
            "guid": "41c34444c285db0ef82e00da974332cf7ee376d8",
            "placed": "2014-08-14T14:22:14-0400",
            "status": "ORDER_SPLIT",
            "statusDisplay": "processing",
            "total": {
                "currencyIso": "USD",
                "formattedValue": "$48.99",
                "priceType": "BUY",
                "value": 48.99
            }
        },
        {
            "code": "00004545",
            "guid": "dbfd6931587afaa41b984fa58cf3c6c933c1a32d",
            "placed": "2014-08-14T14:19:18-0400",
            "status": "ORDER_SPLIT",
            "statusDisplay": "processing",
            "total": {
                "currencyIso": "USD",
                "formattedValue": "$48.99",
                "priceType": "BUY",
                "value": 48.99
            }
        },
        {
            "code": "00004540",
            "guid": "87599daf51450348e429815538c9de37c6b89bae",
            "placed": "2014-08-14T14:14:05-0400",
            "status": "ORDER_SPLIT",
            "statusDisplay": "processing",
            "total": {
                "currencyIso": "USD",
                "formattedValue": "$48.99",
                "priceType": "BUY",
                "value": 48.99
            }
        },
        {
            "code": "00004536",
            "guid": "e7084138099486678ae5e2a42d54ce632f2bde8a",
            "placed": "2014-08-14T14:13:24-0400",
            "status": "ORDER_SPLIT",
            "statusDisplay": "processing",
            "total": {
                "currencyIso": "USD",
                "formattedValue": "$48.99",
                "priceType": "BUY",
                "value": 48.99
            }
        },
        {
            "code": "00004530",
            "guid": "25c5553f608ae2c6d33f69f1d6a9d6eeb5c019a3",
            "placed": "2014-08-14T14:07:55-0400",
            "status": "ORDER_SPLIT",
            "statusDisplay": "processing",
            "total": {
                "currencyIso": "USD",
                "formattedValue": "$48.99",
                "priceType": "BUY",
                "value": 48.99
            }
        },
        {
            "code": "00004480",
            "guid": "c9396ea02c38fe0d75c3740e06f2ad5d0f7fee7d",
            "placed": "2014-08-14T13:11:28-0400",
            "status": "ORDER_SPLIT",
            "statusDisplay": "processing",
            "total": {
                "currencyIso": "USD",
                "formattedValue": "$48.99",
                "priceType": "BUY",
                "value": 48.99
            }
        },
        {
            "code": "00004476",
            "guid": "c84299ac755a300e669655282953a1ca304959b1",
            "placed": "2014-08-14T13:08:25-0400",
            "status": "ORDER_SPLIT",
            "statusDisplay": "processing",
            "total": {
                "currencyIso": "USD",
                "formattedValue": "$48.99",
                "priceType": "BUY",
                "value": 48.99
            }
        },
        {
            "code": "00004469",
            "guid": "1c5ea5438594a5bb39e15a787c5a45fa97bc81a4",
            "placed": "2014-08-14T13:02:23-0400",
            "status": "APPROVED",
            "statusDisplay": "approved",
            "total": {
                "currencyIso": "USD",
                "formattedValue": "$48.99",
                "priceType": "BUY",
                "value": 48.99
            }
        },
        {
            "code": "00004464",
            "guid": "86b88d8399404a3e6539d42d0cddd212e844565a",
            "placed": "2014-08-14T13:01:38-0400",
            "status": "ORDER_SPLIT",
            "statusDisplay": "processing",
            "total": {
                "currencyIso": "USD",
                "formattedValue": "$48.99",
                "priceType": "BUY",
                "value": 48.99
            }
        }
    ],
    "pagination": {
        "currentPage": 0,
        "pageSize": 20,
        "sort": "byDate",
        "totalPages": 8,
        "totalResults": 158
    },
    "sorts": [
        {
            "code": "byDate",
            "selected": true
        },
        {
            "code": "byOrderNumber",
            "selected": false
        }
    ]
}